Visualisation avec R - 5 Base de données
…
En utilisant dplyr, construire une table contenant les informations suivantes sur la playlist appelée Classical : le titre de chaque piste ainsi que le titre de l’album dont cette piste est tirée.

db_album <- tbl(con, "Album")
db_playlist_track |>
  left_join(db_playlist, by = "PlaylistId") |>
  rename(PlaylistName = Name) |>
  filter(PlaylistName == "Classical") |>
  left_join(db_track, by = "TrackId") |>
  left_join(db_album, by = "AlbumId") |>
  select(Name, Title) |>
  collect()

# A tibble: 75 × 2
   Name                                                                   Title 
   <chr>                                                                  <chr> 
 1 "Intoitus: Adorate Deum"                                               Adora…
 2 "Miserere mei, Deus"                                                   Alleg…
 3 "Canon and Gigue in D Major: I. Canon"                                 Pache…
 4 "Concerto No. 1 in E Major, RV 269 \"Spring\": I. Allegro"             Vival…
 5 "Concerto for 2 Violins in D Minor, BWV 1043: I. Vivace"               Bach:…
 6 "Aria Mit 30 Veränderungen, BWV 988 \"Goldberg Variations\": Aria"     Bach:…
 7 "Suite for Solo Cello No. 1 in G Major, BWV 1007: I. Prélude"          Bach:…
 8 "The Messiah: Behold, I Tell You a Mystery... The Trumpet Shall Sound" Hande…
 9 "Solomon HWV 67: The Arrival of the Queen of Sheba"                    The W…
10 "\"Eine Kleine Nachtmusik\" Serenade In G, K. 525: I. Allegro"         Sir N…
# ℹ 65 more rows
…
Simple feature collection with 57 features and 3 fields
Geometry type: POINT
Dimension:     XY
Bounding box:  xmin: -1.705097 ymin: 48.08731 xmax: -1.633875 ymax: 48.12995
Geodetic CRS:  WGS 84
# A tibble: 57 × 4
   nom                   coordonnees$lon  $lat dispo             geometry
   <chr>                           <dbl> <dbl> <int>          <POINT [°]>
 1 Sainte-Anne                     -1.68  48.1    13 (-1.680461 48.11421)
 2 Saint-Georges Piscine           -1.67  48.1    14 (-1.674417 48.11239)
 3 Musée Beaux-Arts                -1.67  48.1     7   (-1.67408 48.1096)
 4 Bonnets Rouges                  -1.67  48.1    21 (-1.665814 48.10685)
 5 Charles de Gaulle               -1.68  48.1    15 (-1.677119 48.10511)
 6 Colombier                       -1.68  48.1    16  (-1.680594 48.1061)
 7 Pont de Nantes                  -1.68  48.1     5 (-1.684015 48.10202)
 8 Oberthur                        -1.66  48.1    22 (-1.661853 48.11355)
 9 Auberge de Jeunesse             -1.68  48.1    20 (-1.681876 48.12088)
10 Croix Saint-Hélier              -1.66  48.1    12  (-1.66209 48.10305)
# ℹ 47 more rows
…
