Visualisation avec R - 6 Web scraping
…
# A tibble: 1 × 4
  X1                                                           X2    X3    X4   
  <chr>                                                        <chr> <chr> <chr>
1 "6 buts        Harry Kane (dont 3 pénaltys)4 buts      Rome… "1 b… "Ken… "Vic…

bb |> 
  unite(`1`,2:4) |> 
  separate_wider_delim(X1,delim="buts",names = as.character(c(7,6,4,3,2))) |> 
  select(-1) |> 
  pivot_longer(everything(),names_to = "buts",values_to="joueurs") |> 
  separate_longer_delim(joueurs,delim="\n") |> 
  mutate(joueurs=str_trim(joueurs)) |> #enlever les espaces
  mutate(joueurs=str_remove(joueurs,"[[:digit:]]*$")) #enlever les chiffres en fin de chaines de caractères

# A tibble: 108 × 2
   buts  joueurs                            
   <chr> <chr>                              
 1 6     Harry Kane (dont 3 pénaltys)       
 2 4     Romelu Lukaku                      
 3 4     Antoine Griezmann (dont 3 pénaltys)
 4 4     Kylian Mbappé                      
 5 4     Cristiano Ronaldo (dont 1 pénalty) 
 6 4     Denis Cheryshev                    
 7 3     Eden Hazard (dont 1 pénalty)       
 8 3     Yerry Mina                         
 9 3     Mario Mandžukić                    
10 3     Ivan Perišić                       
# ℹ 98 more rows
…
url_ligue1 <- "https://www.ligue1.fr/"
url_0910 <- "classement?seasonId=2009-2010&StatsActiveTab=0&matchDay="
res <- tibble(class=NULL,club=NULL,journee=NULL)
for (i in 1:38){
  urli <- str_c(url_ligue1,url_0910,as.character(i))
  classi <- read_html(urli)
  resi <- classi |> 
    html_elements(xpath = '//*[contains(concat( " ", @class, " " ), concat( " ", "desktop-item", " " ))]') |> 
    html_text() |> 
    tibble(class=1:20,club=_,journee=i)
  res <- bind_rows(res,resi)
}
res

# A tibble: 760 × 3
   class club                     journee
   <int> <chr>                      <int>
 1     1 FC GIRONDINS DE BORDEAUX       1
 2     2 STADE RENNAIS FC               1
 3     3 AS NANCY LORRAINE              1
 4     4 OLYMPIQUE DE MARSEILLE         1
 5     5 OGC NICE                       1
 6     6 FC LORIENT                     1
 7     7 FC SOCHAUX-MONTBÉLIARD         1
 8     8 AS MONACO                      1
 9     9 OLYMPIQUE LYONNAIS             1
10    10 LE MANS FC                     1
# ℹ 750 more rows
…
