Visualisation avec R - 9 Estimation et intervalles de confiance
…
On présente un cas d’étude dans cette partie. On se pose le problème d’étudier l’impact de l’activité sportive combiné à un régime sur le cancer. Pour se faire, on étudie l’évolution de tumeurs cancéreuses chez des souris réparties en 4 groupes :

CTL : groupe contrôle

EPA: régime

ET : activité physique

EPA ET : régime et activité physique

On importe les données

(data1 <- readxl::read_excel("data/donnees_tum.xlsx", sheet = "Tumeur",skip=1))

# A tibble: 53 × 20
   Id        J5    J8   J12   J14   J16   J20   J22    J26    J28    J30    J34
   <chr>  <dbl> <dbl> <dbl> <dbl> <dbl> <dbl> <dbl>  <dbl>  <dbl>  <dbl>  <dbl>
 1 CTL 1  11.3  10.5  11.1  10.4  11.9  19.8  21.8   30.1   33.1   43.3   85.5 
 2 CTL 2   0     5.29  5.83  5.22  5.77  4.47  4.79   5.06   5.13   5.00   6.21
 3 CTL 3  10.3  16.8  11.4  13.1  13.4  22.9  25.1   24.3   42.1   57.2  104.  
 4 CTL 4   6.00 11.4  25.5  32.0  34.3  69.2  85.2  137.   187.   212.   278.  
 5 CTL 5  15.9  11.6  14.1  11.0  18.0  19.5  21.0   47.4   82.1   81.7  156.  
 6 CTL 6   0     0     3.86  3.65 10.1  14.1  18.8   27.0   46.2   54.2   75.0 
 7 CTL 7  10.8  10.9  19.0  16.9  22.2  31.1  33.9   34.4   62.4   79.3  152.  
 8 CTL 8   9.00 13.3  16.2  15.4  16.4  22.6  22.0   16.9   15.5   17.8   29.4 
 9 CTL 9   3.75 11.2  10.5  11.3  30.3  52.5  59.4   82.1   97.7  126.   218.  
10 CTL 10 14.1  16.3  19.4  23.1  26.7  25.3  38.8   38.2   44.5   54.5   89.5 
# ℹ 43 more rows
# ℹ 8 more variables: J36 <dbl>, J40 <dbl>, J42 <dbl>, J44 <dbl>, J48 <dbl>,
#   J50 <dbl>, J54 <dbl>, J56 <dbl>

dim(data1)

[1] 53 20

et on les met sous un format long :

data2 <- data1 |> pivot_longer(-c(Id),names_to="Day",values_to = "Volume") |>
  mutate(day_num=as.numeric(str_remove(Day,'[J]')),
         groupe=fct(str_remove(Id,'[0-9]+')),
         Day=fct(Day))
data2

# A tibble: 1,007 × 5
   Id    Day   Volume day_num groupe
   <chr> <fct>  <dbl>   <dbl> <fct> 
 1 CTL 1 J5      11.3       5 "CTL "
 2 CTL 1 J8      10.5       8 "CTL "
 3 CTL 1 J12     11.1      12 "CTL "
 4 CTL 1 J14     10.4      14 "CTL "
 5 CTL 1 J16     11.9      16 "CTL "
 6 CTL 1 J20     19.8      20 "CTL "
 7 CTL 1 J22     21.8      22 "CTL "
 8 CTL 1 J26     30.1      26 "CTL "
 9 CTL 1 J28     33.1      28 "CTL "
10 CTL 1 J30     43.3      30 "CTL "
# ℹ 997 more rows
…
Le groupe devient “de plus en plus significatif” lorsque le temps augmente (y compris avec la correction de Bonferonni).

On regarde maintenant les comparaisons par paires :

pwc <- data2 |>
  group_by(Day) |>
  pairwise_t_test(
    Volume ~ groupe,
    p.adjust.method = "bonferroni"
  )
DT::datatable(pwc)

pwc |> filter(p.signif!="ns" | p.adj.signif!="ns") |> arrange(p)

# A tibble: 34 × 10
   Day   .y.    group1 group2     n1    n2       p p.signif   p.adj p.adj.signif
   <fct> <chr>  <chr>  <chr>   <int> <int>   <dbl> <chr>      <dbl> <chr>       
 1 J56   Volume "CTL " "EPA E…    13    14 1.83e-4 ***      0.0011  **          
 2 J56   Volume "CTL " "EPA "     13    13 2.22e-4 ***      0.00133 **          
 3 J56   Volume "CTL " "ET "      13    13 3.57e-4 ***      0.00214 **          
 4 J50   Volume "CTL " "EPA E…    13    14 3.71e-4 ***      0.00222 **          
 5 J54   Volume "CTL " "EPA "     13    13 3.71e-4 ***      0.00223 **          
 6 J50   Volume "CTL " "EPA "     13    13 4   e-4 ***      0.0024  **          
 7 J54   Volume "CTL " "EPA E…    13    14 5.2 e-4 ***      0.00312 **          
 8 J54   Volume "CTL " "ET "      13    13 6.59e-4 ***      0.00395 **          
 9 J48   Volume "CTL " "EPA E…    13    14 8.99e-4 ***      0.00539 **          
10 J50   Volume "CTL " "ET "      13    13 1.08e-3 **       0.00651 **          
# ℹ 24 more rows
…
