Visualisation avec R - 3 Manipuler les données avec dplyr
…
Exercice 3.4 (Dplyr sur les iris de Fisher) On considère le jeu de données iris

iris <- iris |> as_tibble()

Répondre aux questions suivantes en utilisant les verbes dplyr et l’opérateur |>.

Sélectionner les variables Petal.Width et Species.

Construire une table qui contient uniquement les iris d’espèce versicolor ou virginica (on pourra utiliser le symbole | pour la condition ou).

On peut également conserver tous les iris à l’exception de l’espèce setosa :

iris |> filter(Species!="setosa")
## # A tibble: 100 × 5
##    Sepal.Length Sepal.Width Petal.Length Petal.Width Species   
##           <dbl>       <dbl>        <dbl>       <dbl> <fct>     
##  1          7           3.2          4.7         1.4 versicolor
##  2          6.4         3.2          4.5         1.5 versicolor
##  3          6.9         3.1          4.9         1.5 versicolor
##  4          5.5         2.3          4           1.3 versicolor
##  5          6.5         2.8          4.6         1.5 versicolor
##  6          5.7         2.8          4.5         1.3 versicolor
##  7          6.3         3.3          4.7         1.6 versicolor
##  8          4.9         2.4          3.3         1   versicolor
##  9          6.6         2.9          4.6         1.3 versicolor
## 10          5.2         2.7          3.9         1.4 versicolor
## # … with 90 more rows
…
Afficher les matchs de Federer pour chaque tournoi.

ou

Comparer les nombres d’aces par matchs à chaque tour pour les tournois de Roland Garros et Wimbledon.

ou pour une présentation plus synthétique

3.2.5 Compléments : Tidy data avec tidyr

L’utilisation de dplyr et de ggplot (que nous verrons dans la partie suivante) suppose que les données sont présentées sous un format adéquat : une ligne est un individu et une colonne une variable, on parle alors de tidy data. Cette représentation peut dépendre du contexte, et surtout de ce que l’on souhaite faire avec les données. Considérons par exemple le tableau suivant qui présente les taux de chômage des départements français en 2002, 2006, 2011

df <- read_delim("data/tauxchomage.csv",delim=";") |> select(-1)
df
## # A tibble: 96 × 4
##    NOM_DPT                 TCHOMB1T01 TCHOMB1T06 TCHOMB1T11
##    <chr>                        <dbl>      <dbl>      <dbl>
##  1 Ain                            3.9        5.9        6.6
##  2 Aisne                         10.6       12         13.2
##  3 Allier                         9          9.2        9.7
##  4 Alpes-de-Haute-Provence        9.5        9.7       10.3
##  5 Hautes-Alpes                   7.1        7.7        8.3
##  6 Alpes-Maritimes                9.1        8.9        9.2
##  7 Ardèche                        8.1        9.6        9.7
##  8 Ardennes                      11.5       12.8       10.9
##  9 Ariège                         9.2       10.1       10.6
## 10 Aube                           8.2       10         10  
## # … with 86 more rows

Présenté ainsi ce tableau comporte 4 variables (en comptant l’identifiant du département). Dans certaines situations, on peut préférer une structure à 3 variables :

le département

l’année

le taux de chômage

Nous verrons qu’il n’est par exemple pas possible de faire un boxplot permettant de visualiser la distribution du taux de chômage en fonction de l’année à l’aide de ggplot2. Pour passer à ce format il est nécessaire d’assembler les 3 colonnes correspondant aux taux de chômage en une seule colonne et ajouter une colonne qui permette d’identifier l’année. La table obtenue aura plus de lignes, on parle de format long. La fonction pivot_longer du package tidyr permet de faire cette transformation :

df1 <- df |> pivot_longer(-NOM_DPT,names_to="Année",values_to="TCHOM") |> 
  mutate(Année=fct_recode(Année,"2001"="TCHOMB1T01","2006"="TCHOMB1T06","2011"="TCHOMB1T11"))
df1
## # A tibble: 288 × 3
##    NOM_DPT                 Année TCHOM
##    <chr>                   <fct> <dbl>
##  1 Ain                     2001    3.9
##  2 Ain                     2006    5.9
##  3 Ain                     2011    6.6
##  4 Aisne                   2001   10.6
##  5 Aisne                   2006   12  
##  6 Aisne                   2011   13.2
##  7 Allier                  2001    9  
##  8 Allier                  2006    9.2
##  9 Allier                  2011    9.7
## 10 Alpes-de-Haute-Provence 2001    9.5
## # … with 278 more rows
…
L’opération inverse peut être effectuée avec pivot_wider :

df1 |> pivot_wider(names_from="Année",values_from="TCHOM")
## # A tibble: 96 × 4
##    NOM_DPT                 `2001` `2006` `2011`
##    <chr>                    <dbl>  <dbl>  <dbl>
##  1 Ain                        3.9    5.9    6.6
##  2 Aisne                     10.6   12     13.2
##  3 Allier                     9      9.2    9.7
##  4 Alpes-de-Haute-Provence    9.5    9.7   10.3
##  5 Hautes-Alpes               7.1    7.7    8.3
##  6 Alpes-Maritimes            9.1    8.9    9.2
##  7 Ardèche                    8.1    9.6    9.7
##  8 Ardennes                  11.5   12.8   10.9
##  9 Ariège                     9.2   10.1   10.6
## 10 Aube                       8.2   10     10  
## # … with 86 more rows
…
